%YAML 1.1
%TAG !u! tag:unity3d.com,2011:
--- !u!114 &11400000
MonoBehaviour:
  m_ObjectHideFlags: 0
  m_CorrespondingSourceObject: {fileID: 0}
  m_PrefabInstance: {fileID: 0}
  m_PrefabAsset: {fileID: 0}
  m_GameObject: {fileID: 0}
  m_Enabled: 1
  m_EditorHideFlags: 0
  m_Script: {fileID: 11500000, guid: 06c33878dc2d78a46b4eb06e1f850a7b, type: 3}
  m_Name: Desert
  m_EditorClassIdentifier: 
  name: Desert
  baseTerrainHeight: 64
  maxTerrainOffset: 30
  terrainScale: 0.5
  terrainBlolck: 5
  subterrainBlock: 5
  subterrainHeight: 4
  TreeZoneScale: 0
  TreeZoneOffset: 0
  TreeZoneThreshold: 0
  ores:
  - {fileID: 11400000, guid: faf5ff9e7f9e65344b59a4d8e6e3f4ef, type: 2}
  - {fileID: 11400000, guid: ecfb9357cf0046f49954ffd8cb43c321, type: 2}
  - {fileID: 11400000, guid: 5f621d85e320491428b60be7db7a198f, type: 2}
  - {fileID: 11400000, guid: 7f1d92878a567ee40b1506b66043379d, type: 2}
  - {fileID: 11400000, guid: 9929a1ceabca51847908be4435fb6b0f, type: 2}
