%YAML 1.1
%TAG !u! tag:unity3d.com,2011:
--- !u!114 &11400000
MonoBehaviour:
  m_ObjectHideFlags: 0
  m_CorrespondingSourceObject: {fileID: 0}
  m_PrefabInstance: {fileID: 0}
  m_PrefabAsset: {fileID: 0}
  m_GameObject: {fileID: 0}
  m_Enabled: 1
  m_EditorHideFlags: 0
  m_Script: {fileID: 11500000, guid: 875c04cafb546f741923513ee8af851b, type: 3}
  m_Name: GoldOre
  m_EditorClassIdentifier: 
  name: GoldOre
  blockID: 13
  maxHeight: 31
  minHeight: 0
  noiseOffset: 400
  noiseScale: 4.5
  noiseThreshold: 0.25
